module gitlab.com/vund5/chat-application/server

go 1.18

require entgo.io/ent v0.10.1

require (
	ariga.io/atlas v0.3.7-0.20220303204946-787354f533c3 // indirect
	github.com/agext/levenshtein v1.2.1 // indirect
	github.com/apparentlymart/go-textseg/v13 v13.0.0 // indirect
	github.com/go-openapi/inflect v0.19.0 // indirect
	github.com/go-sql-driver/mysql v1.6.0
	github.com/google/go-cmp v0.5.6 // indirect
	github.com/google/uuid v1.3.0 // indirect
	github.com/gorilla/websocket v1.5.0
	github.com/hashicorp/hcl/v2 v2.10.0 // indirect
	github.com/mitchellh/go-wordwrap v0.0.0-20150314170334-ad45545899c7 // indirect
	github.com/zclconf/go-cty v1.8.0 // indirect
	golang.org/x/mod v0.5.1 // indirect
	golang.org/x/text v0.3.7 // indirect
	google.golang.org/protobuf v1.28.0
)
